{
	"packages": [{
		"name": "Eicon_NXP_Kinetis",
		"maintainer": "Eicon(Vic)PtyLtd",
		"websiteURL": "http://www.eicon-vic.com/index.html",
		"email": "TBD",
		"help": {
			"online": "http://www.eicon-vic.com/index.html"
		},
		"platforms": [{
			"name": "Eicon Kinetis Boards",
			"architecture": "kinetis",
			"version": "1.0.1",
			"category": "Contributed",
			"help": {
				"online": "http://www.eicon-vic.com/index.html"
			},
			"url": "https://gitlab.com/noeldiviney/eicon_nxp_kinetis/-/raw/main/package_eicon_nxp_kinetis_index.json",
			"archiveFileName": "eicon-nxp-kinetis-1.0.1.tar.bz2",
			"checksum": "SHA-256:45d5e759621ac28c986031a3cc56f0a206be63a52b928544c67b15c95e3ceda8",
			"size": "7115",
			"boards": [{
				"name": "MK22FX512VLH12"
			}],
			"toolsDependencies": []
		}]

	}]
}		
		

